…
With `glimpse()`, we are looking for column after the variable name. In this case, we know we have character data because we see `<chr>` after the variable name.

Now lets explore the `asthma` object:

``` r
asthma
```

    ## # A tibble: 106 x 6
    ##    geoID       tractCE nameLSAD     pctAsthma pctAsthma_Low pctAsthma_High
    ##    <chr>         <int> <chr>            <dbl>         <dbl>          <dbl>
    ##  1 29510118100  118100 Census Trac…     11.9          11.1           12.7 
    ##  2 29510117400  117400 Census Trac…      9.60          9.30          10.0 
    ##  3 29510126700  126700 Census Trac…     14.5          13.5           15.5 
    ##  4 29510119102  119102 Census Trac…      9.00          8.50           9.70
    ##  5 29510126800  126800 Census Trac…      9.30          8.80           9.80
    ##  6 29510126900  126900 Census Trac…     13.6          12.6           14.6 
    ##  7 29510108100  108100 Census Trac…     12.7          11.8           13.8 
    ##  8 29510127000  127000 Census Trac…     12.8          11.7           14.2 
    ##  9 29510127400  127400 Census Trac…     12.7          11.9           13.8 
    ## 10 29510103700  103700 Census Trac…      8.60          8.10           9.20
    ## # ... with 96 more rows
…
